{
    "app.name": "TousAntiCovid",
    "onboarding.welcomeController.title": "Bienvenido-a",
    "onboarding.welcomeController.mainMessage.title": "Recibe un aviso y avisa a los demás en caso de haber estado expuesto-a a la COVID-19",
    "onboarding.welcomeController.mainMessage.subtitle": "Con TousAntiCovid, participa en la lucha contra la pandemia reduciendo el riesgo de transmisión.",
    "onboarding.welcomeController.howDoesItWork": "Quiero participar",
    "onboarding.explanationsController.title": "Es muy sencillo",
    "onboarding.explanationsController.stepFollow.title": "Activo la aplicación",
    "onboarding.explanationsController.stepFollow.subtitle": "TousAntiCovid utiliza el Bluetooth de tu teléfono para detectar el teléfono de los demás usuarios que están cerca del tuyo.",
    "onboarding.explanationsController.stepInform.title": "Me mantengo informado",
    "onboarding.explanationsController.stepInform.subtitle": "Serás informado-a si has estado cerca de un usuario que haya dado positivo por COVID-19.",
    "onboarding.explanationsController.stepBeAware.title": "Protejo a los míos, protejo a los demás",
    "onboarding.explanationsController.stepBeAware.subtitle": "Si has dado positivo en la prueba de COVID-19, recibirás un código para que lo escanees o lo introduzcas con los resultados positivos de tu prueba. Si no, tu médico te lo podrá facilitar . Esto te permitirá avisar de forma anónima a los usuarios que hayan estado cerca de ti.",
    "onboarding.explanationsController.dataPrivacy": "Continuar",
    "onboarding.privacyController.title": "Confidencialidad",
    "onboarding.privacyController.accept": "Aceptar",
    "onboarding.proximityController.title": "Detección",
    "onboarding.proximityController.mainMessage.title": "Autorizar los \"contactos Bluetooth\"",
    "onboarding.proximityController.mainMessage.subtitle": "TousAntiCovid necesita utilizar el Bluetooth de tu teléfono para funcionar.\nNingún dato de geolocalización será compartido o registrado.",
    "onboarding.proximityController.allowProximity": "Autorizar",
    "onboarding.beAwareController.title": "Notificación",
    "onboarding.beAwareController.mainMessage.title": "Recibe una notificación en caso de haber estado expuesto-a a un riesgo",
    "onboarding.beAwareController.mainMessage.subtitle": "Si has estado cerca de un usuario diagnosticado positivo por COVID-19, recibirás un aviso.\n\nTousAntiCovid te proporcionará en ese caso las recomendaciones del Ministerio de Solidaridad y Sanidad.",
    "onboarding.beAwareController.allowNotifications": "Autorizar las notificaciones",
    "onboarding.gesturesController.title": "No lo olvides",
    "onboarding.gesturesController.mainMessage.title": "Las medidas genéricas de protección individual siguen siendo primordiales",
    "onboarding.gesturesController.gesture1": "Lávate las manos con frecuencia",
    "onboarding.gesturesController.gesture2": "Tose o estornuda en el pliegue del codo o en un pañuelo",
    "onboarding.gesturesController.gesture3": "Usa pañuelos desechables y tíralos tras su uso",
    "onboarding.gesturesController.gesture4": "Saluda sin dar la mano y evita los besos",
    "onboarding.gesturesController.noted": "Me lo apunto 👍",
    "onboarding.batteryController.title": "Utilización de la batería",
    "onboarding.batteryController.mainMessage.title": "TousAntiCovid necesita funcionar de forma continua en segundo plano.",
    "onboarding.batteryController.mainMessage.subtitle": "Para que TousAntiCovid pueda funcionar de forma continua en segundo plano, acepta desactivar el modo ahorro de energía solo para TousAntiCovid.",
    "onboarding.batteryController.accept": "Aceptar",
    "sickController.message.testedPositive.title": "¿Has dado positivo en el test de COVID-19?",
    "sickController.message.testedPositive.subtitle": "Habrás recibido un código junto con el resultado del test o tu médico te lo ha facilitado: gracias por escanearlo o introducirlo para que las personas que han estado cerca de ti sean alertadas.",
    "sickController.message.youHaveSymptoms.title": "¿Crees que tienes síntomas?",
    "sickController.message.youHaveSymptoms.subtitle": "¿Quieres conocer el comportamiento a adoptar?\nEste cuestionario está aquí para orientarte.",
    "sickController.button.flash": "Escanear el código QR",
    "sickController.button.tap": "Introducir el código ",
    "sickController.button.myConditionInformation": "Informarme sobre mi estado",
    "sickController.button.myConditionInformation.url": "https://orientation.covid19.etalab.gouv.fr/",
    "sickController.button.callCenter": "Encontrar mi teléfono de atención",
    "sickController.button.recommendations": "Leer las recomendaciones",
    "sickController.button.recommendations.url": "https://mesconseilscovid.sante.gouv.fr/",
    "sickController.message.cured.title": "Si no has dado positivo",
    "sickController.message.cured.subtitle": "¿Tu test de COVID-19 ha dado negativo? Decláralo pulsando el siguiente botón:",
    "sickController.button.cured": "No he dado positivo",
    "sickController.state.nothing.title": "No has estado cerca de nadie que haya dado positivo por COVID-19",
    "sickController.state.nothing.subtitle": "No olvides por ello las medidas genéricas de protección individual ni las recomendaciones de salud pública",
    "sickController.state.contact.title": "En los últimos días has estado en contacto con al menos una persona que ha dado positivo por COVID-19",
    "sickController.state.contact.subtitle": "Ponte en contacto con tu médico, infórmale de que te hemos notificado como contacto de riesgo y aíslate.",
    "sickController.state.deleteNotification": "Suprimir la notificación",
    "sickController.state.deleteNotification.alert.title": "¿Estás seguro de querer suprimir la notificación?",
    "sharingController.title": "Compartir",
    "sharingController.mainMessage.title": "Cuantas más personas utilicemos TousAntiCovid, mejor protegidos estaremos",
    "sharingController.mainMessage.subtitle": "Todos tenemos necesidad de ti: la efectividad de esta herramienta en la lucha contra la COVID-19 depende de ti. Gracias por compartirla con los tuyos.",
    "sharingController.buttonAction": "Comparto la aplicación",
    "sharingController.appSharingMessage": "Utilizo TousAntiCovid para participar en la lucha colectiva contra la pandemia: para informar y ser informado. Instálala tú también: https://bonjour.stopcovid.gouv.fr/",
    "aboutController.title": "Acerca de",
    "aboutController.mainMessage.title": "Acerca de TousAntiCovid",
    "aboutController.mainMessage.subtitle": "Esta aplicación ha sido desarrollada por el equipo TousAntiCovid, bajo la supervisión del Ministerio de Solidaridad y Sanidad y de la Secretaría de Estado del Sector Digital.\nEl equipo TousAntiCovid: Inria, ANSSI, Capgemini, Dassault Systèmes, Inserm, Lunabee Studio, Ministerio francés de Solidaridad y Sanidad, Orange, Santé Publique Francia y Withings.",
    "aboutController.webpage": "Más información sobre TousAntiCovid",
    "aboutController.webpageUrl": "https://bonjour.stopcovid.gouv.fr/stopcovid.html",
    "aboutController.faq": "Preguntas - respuestas",
    "aboutController.faqUrl": "https://www.economie.gouv.fr/stopcovid-faq",
    "aboutController.opinion": "Doy mi opinión",
    "aboutController.opinionUrl": "https://voxusagers.numerique.gouv.fr/Demarches/2543?&view-mode=formulaire-avis&nd_mode=en-ligne-enti%C3%A8rement&nd_source=button&key=d209f7b2be0fca3de1df21eaeff49a97",
    "aboutController.appVersion": "Versión %@ #%@",
    "proximityController.error.noBLE": "Tu teléfono no está equipado con Bluetooth Low Energy: lamentamos decirte que no es compatible con TousAntiCovid.",
    "proximityController.error.noNotifications": "Para ser alertado de los riesgos de exposición a la COVID-19, debes activar las notificaciones en los ajustes pulsando aquí 👉",
    "proximityController.error.noBattery": "Para que TousAntiCovid pueda funcionar, autoriza su ejecución en segundo plano pulsando aquí 👉",
    "proximityController.error.noBluetooth": "Para que TousAntiCovid pueda funcionar, autoriza el Bluetooth en los ajustes pulsando aquí 👉",
    "proximityController.error.noLocalisation": "Para que TousAntiCovid pueda funcionar, activa la localización (para el Bluetooth) en los ajustes pulsando aquí 👉",
    "proximityController.error.noNotificationsOrBluetooth": "Para que TousAntiCovid pueda funcionar, tienes que activar el Bluetooth y las notificaciones en los ajustes pulsando aquí 👉",
    "proximityController.error.noNotificationsOrLocalisation": "Para que TousAntiCovid pueda funcionar, tienes que activar el Bluetooth y las notificaciones en los ajustes pulsando aquí 👉",
    "proximityController.error.noBluetoothOrLocalisation": "Para que TousAntiCovid pueda funcionar, tienes que activar la localización (para el Bluetooth) y las notificaciones en los ajustes pulsando aquí 👉",
    "proximityController.error.noNotificationsOrBluetoothOrLocalisation": "Para que TousAntiCovid pueda funcionar, tienes que activar la localización (para el Bluetooth) y las notificaciones en los ajustes pulsando aquí 👉",
    "proximityController.error.activateProximity": "TousAntiCovid está desactivado. Pulsa en esta banda para activarlo.",
    "proximityService.error.scanError": "No se puede activar la búsqueda Bluetooth Low Energy.",
    "proximityService.error.captchaError": "No podemos verificar que no eres un robot.",
    "informationController.title": "Información",
    "informationController.subtitle": "Ministerio francés de Solidaridad y Sanidad",
    "informationController.mainMessage.atRisk.title": "Has estado en contacto con un usuario que ha dado positivo por COVID-19",
    "informationController.mainMessage.atRisk.subtitle": "Las medidas a adoptar:",
    "informationController.mainMessage.nothing.title": "No has estado cerca de un usuario que haya dado positivo por COVID-19",
    "informationController.mainMessage.nothing.subtitle": "Las medidas a adoptar:",
    "informationController.step.isolate.atRisk.title": "%d. Aíslate",
    "informationController.step.isolate.atRisk.subtitle": "Intenta entrar en contacto con el menor número de personas posible. Extrema el respeto de las medidas genéricas de protección individual.",
    "informationController.step.isolate.nothing.title": "%d. Las medidas genéricas de protección individual",
    "informationController.step.isolate.nothing.subtitle": "Respeta las medidas genéricas de protección individual y pon freno a la propagación del coronavirus",
    "informationController.step.isolate.buttonTitle": "Las medidas genéricas de protección individual",
    "informationController.step.beCareful.atRisk.title": "%d. Vigila la aparición de síntomas",
    "informationController.step.beCareful.atRisk.subtitle": "En caso de duda, rellena el cuestionario de orientación en \"Mis consejos COVID\" o llama a tu médico.",
    "informationController.step.beCareful.nothing.title": "%d. Vigila la aparición de síntomas",
    "informationController.step.beCareful.nothing.subtitle": "Ante la duda, consulta a tu médico si crees tener síntomas compatibles y no dudes en rellenar el cuestionario de orientación en \"Mis consejos COVID\"",
    "informationController.step.beCareful.buttonTitle": "Cuestionario de orientación",
    "informationController.step.appointment.title": "%d. Llama a tu médico",
    "informationController.step.appointment.subtitle": "Ponte en contacto con tu médico tratante. Si no tienes médico, llama al número siguiente para que te deriven hacia un facultativo (servicio gratuito + llamada gratuita)",
    "informationController.step.appointment.buttonTitle": "Llamar al 0 800 130 000",
    "informationController.step.moreInfo.title": "%d. Más información",
    "informationController.step.moreInfo.subtitle": "Para obtener recomendaciones personalizadas sobre tu salud y la de los tuyos.",
    "informationController.step.moreInfo.buttonTitle": "Consejos COVID-19",
    "informationController.step.moreInfo.url": "https://mesconseilscovid.sante.gouv.fr/",
    "enterCodeController.title": "Tu código",
    "enterCodeController.mainMessage.title": "Introduce el código que has recibido junto con el resultado del test (debajo del código QR) o que te ha facilitado tu médico (código de 6 caracteres, válido 1 hora)",
    "enterCodeController.mainMessage.subtitle": "Este código es aleatorio y no contiene ninguna información personal.",
    "enterCodeController.button.validate": "Confirmar",
    "enterCodeController.textField.placeholder": "Introduce tu código aquí",
    "enterCodeController.noCodeEnteredAlert.message": "Tienes que introducir el código para poder continuar",
    "scanCodeController.explanation": "Acerca tu teléfono al código QR que figura en el resultado del laboratorio (código anónimo desprovisto de información personal).",
    "common.about": "Acerca de",
    "common.delete": "Suprimir",
    "common.keep": "Conservar",
    "common.restart": "Reiniciar",
    "common.confirm": "Confirmar",
    "common.error.callImpossible": "Tu teléfono no te permite llamar",
    "common.ok": "OK",
    "common.cancel": "Anular",
    "common.yes": "Sí",
    "common.no": "No",
    "common.tryAgain": "Volver a intentarlo",
    "common.needCameraAccessToScan": "La aplicación necesita acceder a tu cámara para poder escanear el código QR",
    "common.needLocalisationAccessToScan": "La aplicación necesita acceder a tu ubicación para escanear los dispositivos que te rodean",
    "common.settings": "Ajustes",
    "common.permissionsNeeded": "Mensaje importante",
    "common.readMore": "Más información",
    "common.close": "Cerrar",
    "common.today": "Hoy",
    "common.yesterday": "Ayer",
    "common.daysAgo": "Hace %d días",
    "common.iDontKnow": "No sé",
    "common.send": "Enviar",
    "common.dontSend": "No enviar",
    "common.warning": "Atención",
    "common.error": "No es culpa tuya",
    "common.error.internet": "Comprueba que estás conectado-a a internet y vuelve a intentarlo",
    "common.error.server": "Comprueba que no tienes actualizaciones pendientes en el Store y vuelve a intentarlo en unos minutos. Gracias.",
    "common.error.needRegister": "Para efectuar esta acción tienes que estar dado-a de alta",
    "accessibility.back.label": "Volver",
    "accessibility.onboarding.explanations.step1": "Primero",
    "accessibility.onboarding.explanations.step2": "Segundo",
    "accessibility.onboarding.explanations.step3": "Tercero",
    "accessibility.hint.onboarding.back.label": "Volver atrás",
    "accessibility.hint.onboarding.bottomButton": "Continuar",
    "accessibility.hint.proximity.alert.touchToGoToSettings.ios": "Utilizar este botón para ir a ajustes",
    "accessibility.hint.sick.qrCode.enterCodeOnNextButton": "Esta utilidad necesita acceder a la cámara. Si lo prefieres, puedes utilizar el botón a continuación para introducir el código de forma manual",
    "accessibility.hint.proximity.buttonDescription": "Botón de activación de TousAntiCovid",
    "accessibility.hint.proximity.buttonState.activated": "Activado",
    "accessibility.hint.proximity.buttonState.deactivated": "Desactivado",
    "captchaController.mainMessage.title": "Por la seguridad de la aplicación, debemos comprobar que no eres un robot",
    "captchaController.mainMessage.subtitle": "Respondiendo a algunas preguntas",
    "captchaController.mainMessage.action": "Selecciona las imágenes en que se vea",
    "notification.proximityServiceRunning.title": "TousAntiCovid está activado",
    "notification.proximityServiceRunning.message": "Gracias por participar en la lucha contra la propagación de la COVID-19",
    "notification.channel.title": "TousAntiCovid está activado",
    "notification.channel.atRisk.title": "Riesgo de exposición a la COVID-19",
    "notification.atRisk.title": "Riesgo de exposición a un caso de COVID-19",
    "notification.atRisk.message": "En los últimos días has estado cerca de una persona que ha dado positivo por COVID-19. Si eres menor, habla con tus padres o con tus responsables legales. Pulsa aquí para conocer los pasos a seguir.",
    "manageDataController.title": "Mis datos",
    "manageDataController.eraseLocalHistory.title": "Mis datos en este teléfono",
    "manageDataController.eraseLocalHistory.subtitle": "Esta operación borrará todas las informaciones de \"contactos Bluetooth\" almacenadas en tu teléfono.",
    "manageDataController.eraseLocalHistory.button": "Borrar en mi teléfono",
    "manageDataController.eraseLocalHistory.success": "Datos borrados con éxito",
    "manageDataController.eraseLocalHistory.confirmationDialog.title": "Confirmación",
    "manageDataController.eraseLocalHistory.confirmationDialog.message": "¿Confirmas que quieres suprimir el historial de \"contactos Bluetooth\" almacenados hasta ahora? Esta acción es irreversible.",
    "manageDataController.eraseRemoteContact.title": "Mis datos en el servidor",
    "manageDataController.eraseRemoteContact.subtitle": "Esta operación borrará los pseudo-identificadores que te han sido asignados y que han sido intercambiados con otros teléfonos y enviados al servidor.",
    "manageDataController.eraseRemoteContact.button": "Borrar los datos del servidor",
    "manageDataController.eraseRemoteContact.success": "Datos borrados con éxito",
    "manageDataController.eraseRemoteContact.confirmationDialog.title": "Confirmación",
    "manageDataController.eraseRemoteContact.confirmationDialog.message": "Esta acción es irreversible: ¿Confirmas que quieres borrar tus pseudo-identificadores efímeros del servidor?",
    "manageDataController.eraseRemoteAlert.title": "Mis notificaciones",
    "manageDataController.eraseRemoteAlert.subtitle": "Si en algún momento has estado cerca de una o más personas que hayan dado positivo por COVID-19, recibirás una notificación. Atención: esta acción suprimirá todas tus notificaciones.",
    "manageDataController.eraseRemoteAlert.button": "Borrar mis notificaciones",
    "manageDataController.eraseRemoteAlert.success": "Notificaciones borradas con éxito",
    "manageDataController.eraseRemoteAlert.confirmationDialog.title": "Atención",
    "manageDataController.eraseRemoteAlert.confirmationDialog.message": "Esta acción es irreversible: ¿Confirmas que quieres borrar tus notificaciones?",
    "manageDataController.quitStopCovid.title": "Salir de TousAntiCovid",
    "manageDataController.quitStopCovid.subtitle": "En todo momento tienes la posibilidad de dejar de utilizar TousAntiCovid y borrar todos los datos que te conciernen.",
    "manageDataController.quitStopCovid.button": "Darse de baja",
    "manageDataController.quitStopCovid.success": "Todas las informaciones han sido suprimidas",
    "manageDataController.quitStopCovid.confirmationDialog.title": "Atención",
    "manageDataController.quitStopCovid.confirmationDialog.message": "Esta acción es irreversible: ¿Confirmas que quieres darte de baja en TousAntiCovid?",
    "symptomsOriginController.title": "Síntomas",
    "symptomsOriginController.explanation.title": "Gracias por precisar cuándo aparecieron los primeros síntomas",
    "symptomsOriginController.explanation.subtitle": "Esto nos permitirá evaluar tu período de contagiosidad",
    "symptomsOriginController.noSymptoms": "No tengo síntomas",
    "sendHistoryController.title": "Envío del historial",
    "sendHistoryController.mainMessage.title": "Salva vidas participando en la lucha ciudadana contra la COVID-19",
    "sendHistoryController.mainMessage.subtitle": "Compartiendo anónimamente tus \"contactos Bluetooth\" estarás ayudando a romper las cadenas de transmisión y por tanto a salvar vidas.\n\nAl enviar estas informaciones autorizo a TousAntiCovid a que las almacene en el servidor por un plazo de 14 días.",
    "sendHistoryController.dontSend.alert.message": "Tu decisión es definitiva: ¿Confirmas que no deseas compartir tus \"contactos Bluetooth\" ?",
    "callCenterController.title": "Teléfonos de atención",
    "callCenterController.phoneNumbers": "Números de teléfono",
    "callCenterController.header.title": "En caso de emergencia",
    "callCenterController.header.subtitle": "Llama al 15",
    "callCenterController.header.emergenciesPhoneNumber": "15",
    "onboarding.proximityController.allowProximity.warning": "Atención: Android va a solicitar acceso a la ubicación de este dispositivo. TousAntiCovid utilizará únicamente la detección Bluetooth de los teléfonos que estén cerca, nunca la geolocalización.",
    "common.understand": "Comprendido",
    "onboarding.gesturesController.gesture5": "Evita tocarte la cara",
    "onboarding.gesturesController.gesture6": "Respeta la distancia de al menos un metro con los demás",
    "common.bravo": "Activado",
    "proximityController.button.activateProximity": "Activo TousAntiCovid",
    "proximityController.button.deactivateProximity": "Desactivo TousAntiCovid",
    "scanCodeController.camera.authorizationNeeded.title": "Autorización necesaria",
    "scanCodeController.camera.authorizationNeeded.message": "Has denegado el permiso para utilizar la cámara. Para escanear un código QR es necesario dar la autorización en los ajustes de tu iPhone.",
    "notification.channel.error.title": "Error detectado",
    "notification.error.title": "TousAntiCovid te necesita",
    "notification.error.message": "Reinicia TousAntiCovid cuanto antes para garantizar su correcto funcionamiento. Gracias.",
    "sickController.sick.title": "Gracias",
    "sickController.sick.mainMessage.title": "Cuídate",
    "sickController.sick.mainMessage.subtitle": "Estas son las recomendaciones sanitarias.\n\nPonte en contacto con tu médico tratante si tienes alguna duda sobre la evolución de la enfermedad. Si no tienes médico, llama al número siguiente para que te deriven hacia un facultativo (servicio gratuito + llamada gratuita).\n\n Si te cuesta respirar, llama de inmediato al 15 (114 para las personas sordas o con problemas de audición).",
    "enterCodeController.alert.invalidCode.title": "Código no válido",
    "enterCodeController.alert.invalidCode.message": "El código introducido no es válido. Por favor, vuelve a intentarlo.",
    "sendHistoryController.alert.invalidCode.title": "Código no válido",
    "sendHistoryController.alert.invalidCode.message": "El código introducido no es válido. Por favor, vuelve a intentarlo.",
    "callCenter.phoneNumber": "0800130000",
    "onboarding.noBleController.title": "Teléfono incompatible",
    "onboarding.noBleController.mainMessage.title": "TousAntiCovid no puede funcionar en tu teléfono ya que no soporta íntegramente el Bluetooth Low Energy",
    "onboarding.noBleController.mainMessage.subtitle": "Aun así, siempre puedes actuar en la lucha contra la COVID-19 compartiendo esta aplicación. Cuantos más la utilicemos, mayor será su eficacia.\nHazlo saber a tus familiares y allegados.",
    "onboarding.noBleController.accept": "Compartir la aplicación",
    "onboarding.noBleController.infos": "Smartphones compatibles",
    "onboarding.noBleController.infosUrl": "https://app.stopcovid.gouv.fr/json/version-24/devices.html",
    "common.error.unauthorized": "No tienes los permisos requeridos para efectuar esta acción.",
    "common.error.unknown": "Se ha producido un error.",
    "common.error.proximityUnknown": "Se ha producido un error Bluetooth.",
    "common.error.robertUnknown": "Se ha producido un error ROBERT.",
    "common.error.robertNoEbidForEpoch": "Es imposible encontrar un identificador compatible con la hora de tu teléfono.",
    "common.error.robertNoEbid": "Es imposible asignar un identificador encriptado.",
    "common.error.keystoreNoKey": "No hemos encontrado ninguna clave en tu teléfono.",
    "common.error.decryptFail": "Es imposible descifrar la clave almacenada.",
    "common.error.bleAdvertiser": "Fallo de la activación Bluetooth. Vuelve a intentarlo o reinicia tu teléfono.",
    "common.error.bleScanner": "Fallo del scanning Bluetooth. Vuelve a intentarlo o reinicia tu teléfono.",
    "common.error.proximityNotification": "Fallo en la creación de la notificación Bluetooth. Vuelve a intentarlo o reinicia tu teléfono.",
    "proximityController.error.bluetoothOff": "Para que TousAntiCovid pueda funcionar debes activar el Bluetooth",
    "onboarding.gesturesController.gesture7": "Lleva mascarilla cuando no puedas respetar la distancia de seguridad de un metro",
    "notification.channel.upgrade.title": "Actualización",
    "notification.upgrade.title": "Actualización",
    "notification.upgrade.message": "TousAntiCovid te necesita. Por favor, abre la app: es necesario instalar la actualización de TousAntiCovid para que siga funcionando correctamente.",
    "common.error.clockNotAligned.title": "Por favor, utiliza el reloj automático",
    "common.error.clockNotAligned.message": "Tu teléfono no está en hora. Por tu seguridad, TousAntiCovid no puede funcionar correctamente si la hora es inexacta.",
    "captchaController.title": "Verificación",
    "captchaController.mainMessage.image.title": "Por favor, escribe el texto que aparece en la imagen",
    "captchaController.mainMessage.image.subtitle": "Gracias a tu acción, el acceso a TousAntiCovid es más seguro.",
    "captchaController.mainMessage.audio.title": "Por favor, escribe lo que oyes",
    "captchaController.mainMessage.audio.subtitle": "Gracias a tu acción, el acceso a TousAntiCovid es más seguro.",
    "captchaController.textField.image.placeholder": "Escribe el texto de la imagen",
    "captchaController.textField.audio.placeholder": "Escribe lo que oyes",
    "captchaController.button.title": "Confirmar",
    "captchaController.alert.noAnswer.title": "Atención",
    "captchaController.alert.noAnswer.message": "Por favor, escribe una respuesta para poder confirmar.",
    "captchaController.generate.image": "Mostrar otra imagen",
    "captchaController.generate.sound": "Oír otro sonido",
    "captchaController.switchToImage": "Utilizar la versión visual",
    "captchaController.switchToAudio": "Utilizar la versión audio",
    "accessibility.hint.captcha.image": "Imagen de captcha",
    "accessibility.hint.captcha.audio.button.play": "Escuchar el captcha audio",
    "accessibility.hint.captcha.audio.button.pause": "Parar la lectura del captcha audio",
    "captchaController.alert.invalidCode.title": "Atención",
    "captchaController.alert.invalidCode.message": "El código introducido no es válido.",
    "proximityController.error.noBackgroundAppRefresh": "Es necesaria la actualización en segundo plano. Pulsa este botón para activarla",
    "notification.error.connectivity": "TousAntiCovid se ha detenido debido a la falta de disponibilidad de Bluetooth. Recuerda activar de nuevo TousAntiCovid cuando el Bluetooth esté disponible.",
    "common.retry": "Volver a intentarlo",
    "notification.proximityServiceNotRunning.title": "TousAntiCovid está desactivado",
    "notification.proximityServiceNotRunning.message": "TousAntiCovid se encuentra desactivado. Le aconsejamos volver a activarlo antes de entrar en contacto con otras personas. Gracias por participar en la lucha contra la propagación de la COVID-19.",
    "widget.title.activated": "Activado",
    "widget.title.deactivated": "Desactivado",
    "widget.info.small.title.noContact": "No se ha detectado ninguna exposición a la COVID-19",
    "widget.info.small.title.atRisk": "Se ha detectado alguna exposición a la COVID-19",
    "widget.info.moreInfo": "Más información",
    "widget.openTheApp": "Abrir la aplicación",
    "widget.isSick.small.title": "Cuídate",
    "widget.isSick.full.title": "Cuídate",
    "infoCenterController.title": "Información actualizada",
    "declareController.title": "Me declaro positivo",
    "declareController.notRegistered.mainMessage.title": "Importante",
    "declareController.notRegistered.mainMessage.subtitle": "Si has sido diagnosticado positivo por COVID-19, es inútil que lo declares con tu código a través de TousAntiCovid, ya que nunca has activado la aplicación.",
    "myHealthController.title": "Mi salud",
    "myHealthController.notRegistered.mainMessage.title": "Antes debes activar TousAntiCovid",
    "myHealthController.notRegistered.mainMessage.subtitle": "Para que te podamos alertar de un riesgo de contagio, primero debes activar TousAntiCovid pulsando en “Proteger”.",
    "myHealthController.covidAdvices.title": "Consejos COVID",
    "myHealthController.covidAdvices.subtitle": "Accede a los consejos personalizados de prevención y cuidado a través de la web “Mes Conseils Covid”. “Mes Conseils Covid” es un servicio del Ministerio francés de Solidaridad y Sanidad.",
    "myHealthController.covidAdvices.buttonTitle": "Acceder a los consejos",
    "myHealthController.covidAdvices.url": "https://mesconseilscovid.sante.gouv.fr/#introduction",
    "myHealthController.testingSites.title": "Dónde hacerme el test",
    "myHealthController.testingSites.subtitle": "Accede a Santé.fr para saber dónde puedes hacerte el test.",
    "myHealthController.testingSites.buttonTitle": "Encontrar el lugar",
    "myHealthController.testingSites.url": "https://sante.fr/recherche/trouver/DepistageCovid",
    "myHealthController.yourDepartment.title": "Mi departamento en Francia",
    "myHealthController.yourDepartment.subtitle": "Infórmate si lo deseas del estado de la pandemia de COVID-19 en tu departamento.",
    "myHealthController.yourDepartment.buttonTitle": "Más información",
    "myHealthController.yourDepartment.url": "https://geodes.santepubliquefrance.fr/#c=indicator&i=sp_ti_tp_7j.tx_pe_gliss&s=2020-09-07-2020-09-13&t=a01&view=map2",
    "myHealthController.notification.title": "Notificación en caso de riesgo",
    "myHealthController.notification.subtitle": "Si has estado cerca de un usuario diagnosticado positivo por COVID-19 (distancia estimada de menos de un metro durante al menos 15 minutos), recibirás una alerta. La verificación de tu estado se hace cada 24 horas.\n\nSi es así, TousAntiCovid te proporcionará las recomendaciones del Ministerio de Solidaridad y Sanidad.",
    "myHealthController.alert.atitudeToAdopt": "Recomendaciones a seguir",
    "infoCenterController.noInternet.title": "Problema con internet",
    "infoCenterController.noInternet.subtitle": "Para acceder a la última hora necesitas estar conectado-a a internet.",
    "myHealthController.notification.update": "Actualización: %@",
    "widget.noStatus.info": "Tu estado aparecerá aquí (actualización una vez al día)",
    "info.notification.newsAvailable.title": "Última hora y cifras clave",
    "info.notification.newsAvailable.body": "TousAntiCovid te ofrece información y cifras clave sobre la COVID-19 para que las leas desde ya…",
    "notification.channel.news.title": "Noticias",
    "proximityController.error.batchLocalisation": "Con tu versión de Android y tu teléfono, la desactivación total de la geolocalización de Android puede provocar problemas de funcionamiento del Bluetooth utilizado por TousAntiCovid.",
    "home.title.activated": "Activado",
    "home.title.deactivated": "Desactivado",
    "home.activationExplanation": "La activación de TousAntiCovid te permitirá mantenerte informado e informar a los demás de un posible riesgo de contagio. Con ello, estarás contribuyendo de forma activa a la lucha contra la COVID-19.",
    "home.mainButton.activate": "Activar TousAntiCovid",
    "home.mainButton.deactivate": "Desactivar TousAntiCovid",
    "home.infoSection.title": "Noticias",
    "home.infoSection.lastInfo": "Última hora",
    "home.infoSection.readAll": "Leer todas las noticias de última hora",
    "home.infoSection.keyFigures": "Cifras clave",
    "home.infoSection.figures.registered": "Dados de alta",
    "home.infoSection.figures.qrCodes": "Códigos QR",
    "home.infoSection.figures.notified": "Notificaciones",
    "home.infoSection.seeAll": "Ver todas las cifras",
    "home.declareSection.title": "Declararme positivo",
    "home.declareSection.cellTitle": "¿Has sido diagnosticado-a positivo por COVID-19?",
    "home.declareSection.cellSubtitle": "Pulsa aquí",
    "home.sharingSection.title": "Comparto",
    "home.sharingSection.cellTitle": "Cuantos más seamos, mejor protegidos estaremos",
    "home.sharingSection.cellSubtitle": "Comparte con los tuyos",
    "home.moreSection.title": "Más ",
    "home.moreSection.manageData": "Gestionar mis datos",
    "home.moreSection.privacy": "Confidencialidad",
    "home.moreSection.aboutStopCovid": "Acerca de",
    "home.moreSection.support": "Ayuda",
    "home.healthSection.title": "Mi salud",
    "home.healthSection.noContact.cellTitle": "No se ha detectado ningún riesgo de contagio",
    "home.healthSection.noContact.cellSubtitle": "Pulsa para saber más",
    "home.healthSection.contact.cellTitle": "Se ha detectado algún riesgo de contagio",
    "home.healthSection.contact.cellSubtitle": "Consultar nuestras recomendaciones",
    "keyfigure.registered.label": "Altas netas",
    "keyfigure.registered.description": "Número de personas que han descargado la aplicación y la han activado.",
    "keyfigure.notification.label": "Alertados a través de la aplicación",
    "keyfigure.notification.description": "Número de personas alertadas por la aplicación tras su exposición a la COVID-19.",
    "keyfigure.qrcodes.label": "Casos de COVID-19 declarados",
    "keyfigure.qrcodes.description": "Número de usuarios que se han declarado positivo por COVID-19 en la aplicación por medio del código QR proporcionado con los resultados del laboratorio.",
    "keyfigure.reffectif.label": "R efectivo",
    "keyfigure.reffectif.shortLabel": "R efectivo",
    "keyfigure.reffectif.description": "El número de reproducción (R) efectivo del virus es el número promedio de personas a las que un enfermo puede contagiar. Actualizado periódicamente, este indicador permite medir la intensidad con que circula el virus. Si el R efectivo es superior a 1, la epidemia avanza. Si es inferior a 1, la epidemia remite. El R0 es el equivalente al R efectivo en ausencia de toda medida de control (estimado al inicio de la epidemia antes de que se implementen las medidas).",
    "keyfigure.tauxincidence.label": "Tasa de incidencia",
    "keyfigure.tauxincidence.shortLabel": "Incidencia",
    "keyfigure.tauxincidence.description": "La tasa de incidencia corresponde al número de personas diagnosticadas positivo por test de SARS-CoV-2 con respecto al tamaño de la población en riesgo. Se expresa en n por cada 100 000 habitantes y permite hacer comparaciones entre diferentes zonas geográficas.",
    "keyfigure.tauxpositivite.label": "Tasa de positividad",
    "keyfigure.tauxpositivite.shortLabel": "Positividad",
    "keyfigure.tauxpositivite.description": "La tasa de positividad corresponde al número de personas diagnosticadas positivo por test con respecto al número total de personas diagnosticadas positivo o negativo en un periodo dado.",
    "keyfigure.tauxoccupation.label": "Tasa de ocupación",
    "keyfigure.tauxoccupation.shortLabel": "Ocupación",
    "keyfigure.tauxoccupation.description": "Se refiere a la proporción de camas en cuidados intensivos ocupadas por pacientes de COVID con respecto al número total de camas disponibles inicialmente, es decir, antes de que un hospital aumente su capacidad de camas en cuidados intensivos. Este indicador mide el grado de tensión de las capacidades de las UCI.",
    "keyfigure.nombrecas.label": "Nuevos casos",
    "keyfigure.nombrecas.shortLabel": "Nuevos casos",
    "keyfigure.nombrecas.description": "Se refiere al número de nuevos casos confirmados positivo por test en las últimas 24 horas.",
    "keyfigure.registered.colorCode.dark": "#FB4B56",
    "keyfigure.registered.colorCode.light": "#E1000F",
    "keyfigure.notification.colorCode.dark": "#85BBFF",
    "keyfigure.notification.colorCode.light": "#000091",
    "keyfigure.qrcodes.colorCode.dark": "#FF8D7E",
    "keyfigure.qrcodes.colorCode.light": "#FF8D7E",
    "keyfigure.reffectif.colorCode.dark": "#FED042",
    "keyfigure.reffectif.colorCode.light": "#A26959",
    "keyfigure.tauxincidence.colorCode.dark": "#FB4B56",
    "keyfigure.tauxincidence.colorCode.light": "#E1000F",
    "keyfigure.tauxpositivite.colorCode.dark": "#7090F0",
    "keyfigure.tauxpositivite.colorCode.light": "#5770BE",
    "keyfigure.nombrecas.colorCode.dark": "#00AC8C",
    "keyfigure.nombrecas.colorCode.light": "#338D68",
    "keyfigure.tauxoccupation.colorCode.dark": "#FF6F4D",
    "keyfigure.tauxoccupation.colorCode.light": "#FF6F4D",
    "keyFiguresController.title": "Cifras clave",
    "keyFiguresController.section.health": "Epidemiología",
    "keyFiguresController.section.app": "Datos TousAntiCovid",
    "common.thousandsSeparator": " ",
    "home.moreSection.testingSites": "Dónde hacerse el test",
    "common.justNow": "Al instante",
    "keyfigure.dailyUpdates": "Actualizado a diario",
    "home.moreSection.curfewCertificate": "Declaración “Toque de queda”",
    "home.moreSection.curfewCertificate.url": "https://media.interieur.gouv.fr/attestation-couvre-feu-covid-19/"
}
